{
  "data": [
    {
      "id": 14,
      "documentId": "jdsq9645eeegoswcl6z2ag3w",
      "slug": "apakah-ini-artikel-ke-empat-apah-iyah-iyain-aja-kak",
      "title": "Apakah Ini Artikel Ke-Empat? Apah Iyah? Iyain Aja Kak!",
      "description": "Apakah Ini Artikel Ke-Empat? Apah Iyah? Iyain Aja Kak!",
      "publishedAt": "2025-08-19T08:06:19.156Z",
      "body": "Apakah Ini Artikel Ke-Empat? Apah Iyah? Iyain Aja Kak!",
      "image": {
        "id": 1,
        "documentId": "r8oe2sps1b5g9f6z4esgfte8",
        "url": "/uploads/Kanjhiwa_c2cae97370.png"
      },
      "author": {
        "id": 1,
        "documentId": "ubdxm7ylkgv3r6bah4cqs1o4",
        "username": "Admin"
      }
    },
    {
      "id": 12,
      "documentId": "bw5suqvflj39wz2x969qrekr",
      "slug": "lorem-ipsum-sit-amet-deler-create",
      "title": "Lorem Ipsum Sit Amet Deler Create Update Terbaru",
      "description": "Lorem Ipsum Sit Amet Deler Create",
      "publishedAt": "2025-08-19T04:51:14.380Z",
      "body": "Lorem Ipsum Sit Amet Deler Create",
      "image": {
        "id": 2,
        "documentId": "rui7zm2og1hcdu1ivfkao35j",
        "url": "/uploads/laravel11_directadmin_final_fixed_856f6cba73.png"
      },
      "author": {
        "id": 1,
        "documentId": "ubdxm7ylkgv3r6bah4cqs1o4",
        "username": "Admin"
      }
    },
    {
      "id": 9,
      "documentId": "z4hqxv052gv6xutp90c4i7dg",
      "slug": "apakah-next-js-adalah-bagian-dari-framework-react-js",
      "title": "Apakah NextJS Adalah Bagian Dari Framework ReactJS? Update",
      "description": "Lorem ipsum dolor sit amet, consectetuer adipiscing elit. Aenean commodo ligula eget dolor.",
      "publishedAt": "2025-08-19T04:00:13.513Z",
      "body": "Lorem ipsum dolor sit amet, consectetuer adipiscing elit. Aenean commodo ligula eget dolor. Aenean massa. Cum sociis natoque penatibus et magnis dis parturient montes, nascetur ridiculus mus. Donec quam felis, ultricies nec, pellentesque eu, pretium quis, sem. Nulla consequat massa quis enim.\n\nDonec pede justo, fringilla vel, aliquet nec, vulputate eget, arcu. In enim justo, rhoncus ut, imperdiet a, venenatis vitae, justo. Nullam dictum felis eu pede mollis pretium. Integer tincidunt. Cras dapibus. Vivamus elementum semper nisi. Aenean vulputate eleifend tellus. Aenean leo ligula, porttitor eu, consequat vitae, eleifend ac, enim.\n\nAliquam lorem ante, dapibus in, viverra quis, feugiat a, tellus. Phasellus viverra nulla ut metus varius laoreet. Quisque rutrum. Aenean imperdiet. Etiam ultricies nisi vel augue. Curabitur ullamcorper ultricies nisi. Nam eget dui. Etiam rhoncus. Maecenas tempus, tellus eget condimentum rhoncus, sem quam semper libero, sit amet adipiscing sem neque sed ipsum.\n\nNam quam nunc, blandit vel, luctus pulvinar, hendrerit id, lorem. Maecenas nec odio et ante tincidunt tempus. Donec vitae sapien ut libero venenatis faucibus. Nullam quis ante. Etiam sit amet orci eget eros faucibus tincidunt. Duis leo. Sed fringilla mauris sit amet nibh. Donec sodales sagittis magna. Sed consequat, leo eget bibendum sodales, augue velit cursus nun.",
      "image": {
        "id": 2,
        "documentId": "rui7zm2og1hcdu1ivfkao35j",
        "url": "/uploads/laravel11_directadmin_final_fixed_856f6cba73.png"
      },
      "author": {
        "id": 1,
        "documentId": "ubdxm7ylkgv3r6bah4cqs1o4",
        "username": "Admin"
      }
    }
  ],
  "meta": {
    "pagination": {
      "page": 1,
      "pageSize": 3,
      "pageCount": 2,
      "total": 4
    }
  }
}